…
``` r
# Counting 
weather_df %>%
  group_by(name, month) %>%
  summarize(
    n_obs = n()
  )
```

    ## # A tibble: 36 × 3
    ## # Groups:   name [3]
    ##    name           month      n_obs
    ##    <chr>          <date>     <int>
    ##  1 CentralPark_NY 2017-01-01    31
    ##  2 CentralPark_NY 2017-02-01    28
    ##  3 CentralPark_NY 2017-03-01    31
    ##  4 CentralPark_NY 2017-04-01    30
    ##  5 CentralPark_NY 2017-05-01    31
    ##  6 CentralPark_NY 2017-06-01    30
    ##  7 CentralPark_NY 2017-07-01    31
    ##  8 CentralPark_NY 2017-08-01    31
    ##  9 CentralPark_NY 2017-09-01    30
    ## 10 CentralPark_NY 2017-10-01    31
    ## # … with 26 more rows

``` r
weather_df %>%
  count(name, month)
```

    ## # A tibble: 36 × 3
    ##    name           month          n
    ##    <chr>          <date>     <int>
    ##  1 CentralPark_NY 2017-01-01    31
    ##  2 CentralPark_NY 2017-02-01    28
    ##  3 CentralPark_NY 2017-03-01    31
    ##  4 CentralPark_NY 2017-04-01    30
    ##  5 CentralPark_NY 2017-05-01    31
    ##  6 CentralPark_NY 2017-06-01    30
    ##  7 CentralPark_NY 2017-07-01    31
    ##  8 CentralPark_NY 2017-08-01    31
    ##  9 CentralPark_NY 2017-09-01    30
    ## 10 CentralPark_NY 2017-10-01    31
    ## # … with 26 more rows
…
``` r
weather_df %>%
  group_by(name, month) %>%
  summarize(
    n_obs = n(),
    mean_tmax = mean(tmax, na.rm = TRUE),
    sd_prcp = sd(prcp),
    median_tmax = median(tmax, na.rm = TRUE)
  )
```

    ## # A tibble: 36 × 6
    ## # Groups:   name [3]
    ##    name           month      n_obs mean_tmax sd_prcp median_tmax
    ##    <chr>          <date>     <int>     <dbl>   <dbl>       <dbl>
    ##  1 CentralPark_NY 2017-01-01    31      5.98    79.0         6.1
    ##  2 CentralPark_NY 2017-02-01    28      9.28    63.9         8.3
    ##  3 CentralPark_NY 2017-03-01    31      8.22   114.          8.3
    ##  4 CentralPark_NY 2017-04-01    30     18.3     74.7        18.3
    ##  5 CentralPark_NY 2017-05-01    31     20.1    155.         19.4
    ##  6 CentralPark_NY 2017-06-01    30     26.3    103.         27.2
    ##  7 CentralPark_NY 2017-07-01    31     28.7     91.0        29.4
    ##  8 CentralPark_NY 2017-08-01    31     27.2     56.9        27.2
    ##  9 CentralPark_NY 2017-09-01    30     25.4     45.4        26.1
    ## 10 CentralPark_NY 2017-10-01    31     21.8    138.         22.2
    ## # … with 26 more rows

``` r
weather_df %>%
  group_by(name, month) %>%
  summarize(across(tmin:prcp, mean))
```

    ## # A tibble: 36 × 5
    ## # Groups:   name [3]
    ##    name           month        tmin  tmax  prcp
    ##    <chr>          <date>      <dbl> <dbl> <dbl>
    ##  1 CentralPark_NY 2017-01-01  0.748  5.98  39.5
    ##  2 CentralPark_NY 2017-02-01  1.45   9.28  22.5
    ##  3 CentralPark_NY 2017-03-01 -0.177  8.22  43.0
    ##  4 CentralPark_NY 2017-04-01  9.66  18.3   32.5
    ##  5 CentralPark_NY 2017-05-01 12.2   20.1   52.3
    ##  6 CentralPark_NY 2017-06-01 18.2   26.3   40.4
    ##  7 CentralPark_NY 2017-07-01 21.0   28.7   34.3
    ##  8 CentralPark_NY 2017-08-01 19.5   27.2   27.4
    ##  9 CentralPark_NY 2017-09-01 17.4   25.4   17.0
    ## 10 CentralPark_NY 2017-10-01 13.9   21.8   34.3
    ## # … with 26 more rows
…
``` r
weather_df %>%
  group_by(name, month) %>%
  mutate(
    tmax_rank = min_rank(desc(tmax))
  ) %>%
  filter(tmax_rank < 4) %>%
  arrange(name, month, tmax_rank)
```

    ## # A tibble: 149 × 8
    ## # Groups:   name, month [36]
    ##    name           id          date        prcp  tmax  tmin month      tmax_rank
    ##    <chr>          <chr>       <date>     <dbl> <dbl> <dbl> <date>         <int>
    ##  1 CentralPark_NY USW00094728 2017-01-12    13  18.9   8.3 2017-01-01         1
    ##  2 CentralPark_NY USW00094728 2017-01-13     0  16.7   0   2017-01-01         2
    ##  3 CentralPark_NY USW00094728 2017-01-26     5  13.3   6.1 2017-01-01         3
    ##  4 CentralPark_NY USW00094728 2017-02-24     0  21.1  14.4 2017-02-01         1
    ##  5 CentralPark_NY USW00094728 2017-02-19     0  18.3  11.7 2017-02-01         2
    ##  6 CentralPark_NY USW00094728 2017-02-23     0  18.3   6.7 2017-02-01         2
    ##  7 CentralPark_NY USW00094728 2017-03-01    30  21.1  12.2 2017-03-01         1
    ##  8 CentralPark_NY USW00094728 2017-03-02     0  17.8   1.7 2017-03-01         2
    ##  9 CentralPark_NY USW00094728 2017-03-25     3  16.7   5.6 2017-03-01         3
    ## 10 CentralPark_NY USW00094728 2017-04-16     0  30.6  15   2017-04-01         1
    ## # … with 139 more rows
